; output control (see DELWAQ-manual)
; yyyy/mm/dd-hh:mm:ss  yyyy/mm/dd-hh:mm:ss   dddhhmmss
  1996/01/01-01:00:00  1996/01/02-15:00:00   000010000 ;  start, stop and step for balance output
  1996/01/01-01:00:00  1996/01/02-15:00:00   000010000 ;  start, stop and step for map output
  1996/01/01-01:00:00  1996/01/02-15:00:00   000010000 ;  start, stop and step for his output
