[General]
Version=3.3
NrOfModules=12
Channel=-1
Sewer=-1
RIVER=0
FLS=-1
D3DFLOW=0
3B=-1
1DMOR=0
DELWAQ=0
2DWAQ=0
3DWAQ=0
WLM=0
RTC=0
Task1Module1=RR
NrOfModulesPerTask1=1
Task2Module1=CF/FLS
NrOfModulesPerTask2=1
NrOfTasks=2
TaskDescription=Run RR (Rainfall-Runoff) module, then 1DFLOW (Rural) and 1DFLOW (Urban) module simultaneously with Overland Flow (2D) module
QuantityAndQualityParallel=0
QuantityResultsPresentFromCase=
QuantityResultsTime=

[Restart]
RES_SELECTED=INPUT
RES_NEW=OUTPUT
RSFLSIN=INPUT
RSFLSOUT=OUTPUT
RSRR_IN=INPUT
RSRR_OUT=OUTPUT

[InitialConditions]
FromNetter=0
FromValuesSelected=0
FromRestart=-1
InitialLevel=0
InitialDepth=0
InitialFlowValue=0
InitialLevelValue=2
InitialDepthValue=.1
EmptyWells=-1

[Simulation]
BeginDay=1
BeginHour=0
BeginMinute=0
BeginMonth=1
BeginSecond=0
BeginYear=2013
EndDay=2
EndHour=0
EndMinute=0
EndMonth=1
EndSecond=0
EndYear=2013
MaxVolFact=.9
Mode=1006
NoNegativeQlatWhenThereIsNoWater=-1
PeriodFromEvent=-1
Steady=0
UnSteady=-1
UseCMTRunoff4Flow=0
PeriodFromRR=0
Remote=0

[Timesteps]
SobekDays=0
SobekHours=0
SobekMinutes=10
SobekSeconds=0
3BDays=0
3BHours=1
3BMinutes=0
3BSeconds=0

[ResultsNodes]
WaterLevel=-1
WaterDepth=-1
WaterOnStreet=-1
TimeWaterOnStreet=-1
LevelFromStreetLevel=-1
RunOff=-1
VolumeOnStreet=-1
TotalWidth=0
TotalArea=0
NodeVolume=0
LateralOnNodes=0

[ResultsBranches]
Discharge=-1
Velocity=-1
SedimentFrijlink=0
SedimentVanRijn=0
Wind=0
Froude=0
WaterLevelSlope=0
Chezy=0
SubSections=0

[ResultsStructures]
Discharge=-1
WaterLevel=-1
CrestlevelOpeningsHeight=-1
StructHead=0
StructVelocity=0
OpeningsWidth=0
OpeningsArea=0
CrestLevel=-1
GateOpeningsLevel=-1
PressureDifference=0
WaterlevelOnCrest=0
ThresholdForSpillCountInHours=24

[ResultsPumps]
PumpResults=-1

[ResultsGeneral]
NrOfTimesteps=6
ActualValue=-1
MeanValue=0
MaximumValue=0
OutputSeriesFullDetail=0
WaterQualityInUse=0

[Water Quality]
MeasurementFile=
Fraction=-1
PeriodFromEvent=-1
HistoryOutputInterval=1
BalanceOutputInterval=1
HisPeriodFromSimulation=-1
BalPeriodFromSimulation=-1

[Updates]
YZProfile=-1

[Flow Parameters]
Option=1
CourantNumber=1
MaxDegree=6
MaxIterations=8
DtMinimum=.001
EpsilonValueVolume=.0001
EpsilonValueWaterDepth=.0001
StructureDynamicsFactor=1
RelaxationFactor=1
Rho=1000
Gravity=9.81
VolumeCorrection=0
ThresholdValueFlooding=.01
ThresholdValueFloodingFLS=.001
Theta=1
MinumumLength=1
AccurateVersusSpeed=3
StructureInertiaDampingFactor=1
MinimumSurfaceinNode=.1
MinimumSurfaceatStreet=.1
ExtraResistanceGeneralStructure=0
AccelerationTermFactor=1
UseTimeStepReducerStructures=0
Limtyphu1D=1
Iadvec1D=1
Momdilution1D=1

[Overland Flow]
InitialValueFromNetter=0
InitialValueFromValuesSelected=0
InitialLevel=0
InitialDepth=0
InitialLevelValue=0
InitialDepthValue=0
MAPOutputTimesteps=6
HISOutputTimesteps=6
INCOutputTimesteps=6
UseGridAsSurface=0
Use1D2DNode=-1
ASCHeightFile=-1
UsePrecipitation=0
MAPParam H=-1
MAPParam C=0
MAPParam Z=0
MAPParam U=0
MAPParam V=0
AsciiOutput=-1
Use2DCarlsonScheme=-1
Use2DDikeLimiter=-1
Minimum2DDikeHeigthLimit=0.50
Minimum2DDikeHeightLimit=.5
TypeDikelvl=2
CarlsonCheckDone=-1

[ParsenIni]
NrOfKeys=1
1 Chapter=Dummy
1 KeyWord=DummyKey
1 KeyValue=DummyValue

[SobekSimIni]
NrOfKeys=1
1 Chapter=Dummy
1 KeyWord=DummyKey
1 KeyValue=DummyValue
[Sediment]
LevelAffectedBySediment=.3
D50=.0005
D90=.001
[Specials]
DesignFactorDLG=1
[Indication]
IndicationVelocityBranches=.5
IndicationVelocityStructures=.75
MinimumFreeboard=-.2
[Flow Options]
ReferenceCase=
RunoffInUse=-1
RtcInUse=0
SimulationSynchron=0
Channel=-1
Sewer=-1
[River Options]
TransitionHeightSD=1



[Output Functions]
UseOutputFrom=3

















