DLF1.0
[General Information]
@simulate.rep = Information about the Simulation
[RR, Flow and RTC Logfiles]
@sobek_3b.log = Logfile of Rainfall-Runoff Module
@parsen.msg = Logfile of Flow Preprocessor
@parsen2D.msg = Logfile of Flow-2D Preprocessor
@sobek.log = Logfile of Flow Module
[Schematisation]
@3B_GENER.OUT = Overview of Rainfall-Runoff Schematisation
[Flow Module: Indications]
@indicat.flw = Indication of Maximum Velocities
[Sewer Flow Module: Results]
@flows.txt = Flows at Structures
@watonstr.txt = Cumulative Time 'Water on Street' for each Node
@freeboar.txt = Summary of Nodes exceeding Minimum Freeboard
@nodes.txt = Overview of Nodes
